These accounts are usable for testing:
--------------------------------------

1.
------ 
Username: +8801711549547
Password: Sinkingone@456789
Role: admin (super admin)

2.
------
Username: +1709771502
Password: Sinkingone@456789
Role: employee

Username: +8801988756456
Password: Sinkingone@456789

3.
------
Username: +8801711549548
Password: Sinkingone@456789
Role: agency_admin

Username: +8801911788900
Password: Sinkingone@456789

Username: +8801711566744
Password: Sinkingone@456789